-------------------------------------------------------------------------------
Test set: org.eclipselabs.spray.styles.ui.tests.StyleProposalPluginTest
-------------------------------------------------------------------------------
Tests run: 3, Failures: 0, Errors: 0, Skipped: 0, Time elapsed: 3.546 sec
elementsProposed#1 - a.style(org.eclipselabs.spray.styles.ui.tests.StyleProposalPluginTest)  Time elapsed: 0.431 secelementsProposed#2 - a.style(org.eclipselabs.spray.styles.ui.tests.StyleProposalPluginTest)  Time elapsed: 0.065 secelementsProposed#3 - a.style(org.eclipselabs.spray.styles.ui.tests.StyleProposalPluginTest)  Time elapsed: 0.088 sec