-------------------------------------------------------------------------------
Test set: org.eclipselabs.spray.shapes.tests.ShapeFormatterTest
-------------------------------------------------------------------------------
Tests run: 1, Failures: 0, Errors: 0, Skipped: 0, Time elapsed: 0.116 sec - in org.eclipselabs.spray.shapes.tests.ShapeFormatterTest
