-------------------------------------------------------------------------------
Test set: org.eclipselabs.spray.shapes.tests.svg.BusmodSVGGeneratorTest
-------------------------------------------------------------------------------
Tests run: 3, Failures: 0, Errors: 0, Skipped: 0, Time elapsed: 0.02 sec - in org.eclipselabs.spray.shapes.tests.svg.BusmodSVGGeneratorTest
