<?xml version="1.0" standalone="no" ?>
<!DOCTYPE svg PUBLIC "-//W3C//DTD SVG 20010904//EN"
    "http://www.w3.org/TR/2001/REC-SVG-20010904/DTD/svg10.dtd">
<svg width="55" height="110" xmlns="http://www.w3.org/2000/svg" xmlns:xlink="http://www.w3.org/1999/xlink">
    <title>Shape: HorizontalLoudspeaker</title>
    <metadata>
        <rdf:RDF xmlns:rdf="http://www.w3.org/1999/02/22-rdf-syntax-ns#"
            xmlns:rdfs="http://www.w3.org/2000/01/rdf-schema#"
            xmlns:dc="http://purl.org/dc/elements/1.1/">
            <rdf:Description rdf:about="http://code.google.com/a/eclipselabs.org/p/spray/">
                <dc:creator>org.eclipselabs.spray.shapes.generator.GeneratorSVGDefinition</dc:creator>
                <dc:subject>Spray SVG Shape</dc:subject>
                <dc:source>http://code.google.com/a/eclipselabs.org/p/spray/</dc:source>
                <dc:format>image/svg+xml</dc:format>
                <dc:type>Image</dc:type>
            </rdf:Description>
        </rdf:RDF>
    </metadata>
<defs>
    <style type="text/css"> <![CDATA[
    rect {fill: none; stroke:black; stroke-width:1px}
    line {fill: none; stroke:black; stroke-width:1px}
    polyline {fill: none; stroke:black; stroke-width:1px}
    polygon {fill: none; stroke:black; stroke-width:1px}
    circle {fill: none; stroke:black; stroke-width:1px}
    ellipse {fill: none; stroke:black; stroke-width:1px}
    text {fill: black; font-family: verdana,sans-serif; font-size:12px;}
    .default {fill: none; stroke:black; stroke-width:1px}
    ]]>
    </style>
    <rect id="anchor" style="fill:#a0c0e8" width="5" height="5"/>
</defs>
<text x="20" y="75">#HorizontalLoudspeakerText</text>
<rect x="20" y="13" width="10" height="14"/>
<polygon points="30 13,50 0,50 40,30 27"/>
<line x1="10" y1="15" x2="20" y2="15"/>
<line x1="10" y1="25" x2="20" y2="25"/>
<use x="9" y="15" xlink:href="#anchor"/>
<use x="9" y="25" xlink:href="#anchor"/>
</svg>
